…
# quick check to see if we have any duplicated asvs
duplicates <- water_ch4_cyclers_asv_df %>%
  dplyr::group_by(asv_id) %>%
  dplyr::summarise(
    n_function_groups = dplyr::n_distinct(function_group), # number of function groups
    function_groups = paste(unique(function_group), collapse = ", ") # if theres another one where asv is duplicated
  ) %>%
  dplyr::filter(n_function_groups > 1) # count
duplicates # awesome methanogenesis functions overlap
```

```
## # A tibble: 62 × 3
##    asv_id    n_function_groups function_groups                                                                                                                                                          
##    <chr>                 <int> <chr>                                                                                                                                                                    
##  1 ASV_102                   2 methanogenesis_by_CO2_reduction_with_H2.value, methanogenesis.value                                                                                                      
##  2 ASV_1063                  4 hydrogenotrophic_methanogenesis.value, methanogenesis_by_CO2_reduction_with_H2.value, methanogenesis_by_reduction_of_methyl_compounds_with_H2.value, methanogenesis.value
##  3 ASV_10909                 4 hydrogenotrophic_methanogenesis.value, methanogenesis_by_CO2_reduction_with_H2.value, methanogenesis_using_formate.value, methanogenesis.value                           
##  4 ASV_1130                  2 methanogenesis_by_CO2_reduction_with_H2.value, methanogenesis.value                                                                                                      
##  5 ASV_11495                 4 hydrogenotrophic_methanogenesis.value, methanogenesis_by_CO2_reduction_with_H2.value, methanogenesis_using_formate.value, methanogenesis.value                           
##  6 ASV_1308                  2 methanogenesis_by_CO2_reduction_with_H2.value, methanogenesis.value                                                                                                      
##  7 ASV_13661                 2 methanogenesis_by_CO2_reduction_with_H2.value, methanogenesis.value                                                                                                      
##  8 ASV_1399                  2 methanogenesis_by_disproportionation_of_methyl_groups.value, methanogenesis.value                                                                                        
##  9 ASV_14                    2 acetoclastic_methanogenesis.value, methanogenesis.value                                                                                                                  
## 10 ASV_165                   3 hydrogenotrophic_methanogenesis.value, methanogenesis_by_CO2_reduction_with_H2.value, methanogenesis.value                                                               
## # ℹ 52 more rows
```
…
# quick check to see if we have any duplicated asvs
duplicates <- sed_ch4_cyclers_asv_df %>%
  dplyr::group_by(asv_id) %>%
  dplyr::summarise(
    n_function_groups = dplyr::n_distinct(function_group), # number of function groups
    function_groups = paste(unique(function_group), collapse = ", ") # if theres another one where asv is duplicated
  ) %>%
  dplyr::filter(n_function_groups > 1) # count
duplicates # awesome methanogenesis functions overlap
```

```
## # A tibble: 144 × 3
##    asv_id    n_function_groups function_groups                                                                                                                                                          
##    <chr>                 <int> <chr>                                                                                                                                                                    
##  1 ASV_1018                  4 hydrogenotrophic_methanogenesis.value, methanogenesis_by_CO2_reduction_with_H2.value, methanogenesis_using_formate.value, methanogenesis.value                           
##  2 ASV_102                   3 methanogenesis_by_CO2_reduction_with_H2.value, methanogenesis_using_formate.value, methanogenesis.value                                                                  
##  3 ASV_10610                 4 hydrogenotrophic_methanogenesis.value, methanogenesis_by_CO2_reduction_with_H2.value, methanogenesis_using_formate.value, methanogenesis.value                           
##  4 ASV_1063                  4 hydrogenotrophic_methanogenesis.value, methanogenesis_by_CO2_reduction_with_H2.value, methanogenesis_by_reduction_of_methyl_compounds_with_H2.value, methanogenesis.value
##  5 ASV_1069                  3 methanogenesis_by_CO2_reduction_with_H2.value, methanogenesis_using_formate.value, methanogenesis.value                                                                  
##  6 ASV_10799                 3 methanogenesis_by_CO2_reduction_with_H2.value, methanogenesis_using_formate.value, methanogenesis.value                                                                  
##  7 ASV_10909                 4 hydrogenotrophic_methanogenesis.value, methanogenesis_by_CO2_reduction_with_H2.value, methanogenesis_using_formate.value, methanogenesis.value                           
##  8 ASV_11199                 2 acetoclastic_methanogenesis.value, methanogenesis.value                                                                                                                  
##  9 ASV_1130                  3 methanogenesis_by_CO2_reduction_with_H2.value, methanogenesis_using_formate.value, methanogenesis.value                                                                  
## 10 ASV_11373                 4 hydrogenotrophic_methanogenesis.value, methanogenesis_by_CO2_reduction_with_H2.value, methanogenesis_using_formate.value, methanogenesis.value                           
## # ℹ 134 more rows
```
…
